1622494687
O:39:"Grav\Common\Flex\Types\Pages\PageObject":4:{s:4:"type";s:5:"pages";s:3:"key";s:12:"rightsidebar";s:8:"elements";a:4:{s:4:"root";b:0;s:6:"header";a:8:{s:5:"title";s:13:"Right Sidebar";s:8:"subtitle";s:41:"Behold the <strong>Right Sidebar</strong>";s:11:"description";s:57:"Where things on the right ... accompany that on the left.";s:10:"body_class";s:13:"right-sidebar";s:12:"header_class";s:17:"skel-layers-fixed";s:4:"icon";s:6:"tablet";s:11:"onpage_menu";b:1;s:7:"content";a:2:{s:5:"items";s:13:"@self.modular";s:5:"order";a:3:{s:2:"by";s:7:"default";s:3:"dir";s:3:"asc";s:6:"custom";a:1:{i:0;s:8:"_content";}}}}s:11:"frontmatter";s:357:"title: Right Sidebar
subtitle: "Behold the <strong>Right Sidebar</strong>"
description: "Where things on the right ... accompany that on the left."
body_class: right-sidebar
header_class: skel-layers-fixed
icon: tablet
onpage_menu: true
content:
    items: @self.modular
    order:
        by: default
        dir: asc
        custom:
            - _content";s:8:"markdown";s:0:"";}s:7:"storage";a:7:{s:3:"key";s:12:"rightsidebar";s:11:"storage_key";s:15:"03.rightsidebar";s:8:"template";s:7:"modular";s:17:"storage_timestamp";i:1619815198;s:8:"markdown";a:1:{s:0:"";a:1:{s:7:"modular";i:1619815198;}}s:8:"children";a:2:{s:8:"_content";b:0;s:9:"_features";b:0;}s:8:"checksum";s:32:"5bcf696fc56ada9798621f7edc60c5be";}}