1622496231
O:39:"Grav\Common\Flex\Types\Pages\PageObject":4:{s:4:"type";s:5:"pages";s:3:"key";s:12:"home/_header";s:8:"elements";a:4:{s:4:"root";b:0;s:6:"header";a:2:{s:5:"title";s:70:"A label <strong>by</strong> introverts <strong>for</strong> introverts";s:4:"icon";s:7:"heart-o";}s:11:"frontmatter";s:93:"title: 'A label <strong>by</strong> introverts <strong>for</strong> introverts'
icon: heart-o";s:8:"markdown";s:71:"<p>
Specialising in <strong>limited-run</strong> physical releases
</p>";}s:7:"storage";a:6:{s:3:"key";s:12:"home/_header";s:11:"storage_key";s:15:"01.home/_header";s:8:"template";s:6:"header";s:17:"storage_timestamp";i:1622495526;s:8:"markdown";a:1:{s:0:"";a:1:{s:6:"header";i:1622495526;}}s:8:"checksum";s:32:"7ff1f97c5fffd80c02edc92c8b1fbba0";}}