1622497531
O:39:"Grav\Common\Flex\Types\Pages\PageObject":4:{s:4:"type";s:5:"pages";s:3:"key";s:11:"home/_icons";s:8:"elements";a:4:{s:4:"root";b:0;s:6:"header";a:3:{s:5:"title";s:111:"Behold the <strong>icons</strong> that visualize what you’re all about. or just take up space. your call bro.";s:7:"buttons";a:1:{i:0;a:2:{s:4:"text";s:13:"Find Out More";s:3:"url";s:1:"#";}}s:5:"icons";a:6:{i:0;a:2:{s:5:"label";s:9:"Feature 1";s:4:"icon";s:7:"clock-o";}i:1;a:2:{s:5:"label";s:9:"Feature 2";s:4:"icon";s:9:"volume-up";}i:2;a:2:{s:5:"label";s:9:"Feature 3";s:4:"icon";s:6:"laptop";}i:3;a:2:{s:5:"label";s:9:"Feature 4";s:4:"icon";s:5:"inbox";}i:4;a:2:{s:5:"label";s:9:"Feature 5";s:4:"icon";s:4:"lock";}i:5;a:2:{s:5:"label";s:9:"Feature 6";s:4:"icon";s:3:"cog";}}}s:11:"frontmatter";s:440:"title: "Behold the <strong>icons</strong> that visualize what you’re all about. or just take up space. your call bro."
buttons:
    - text: Find Out More
      url: '#'
icons:
    - label: Feature 1
      icon: clock-o
    - label: Feature 2
      icon: volume-up 
    - label: Feature 3
      icon: laptop  
    - label: Feature 4
      icon: inbox
    - label: Feature 5
      icon: lock   
    - label: Feature 6
      icon: cog       ";s:8:"markdown";s:274:"Sed tristique purus vitae volutpat ultrices. Aliquam eu elit eget arcu comteger ut fermentum lorem. Lorem ipsum dolor sit amet. Sed tristique purus vitae volutpat ultrices. eu elit eget commodo. Sed tristique purus vitae volutpat ultrices. Aliquam eu elit eget arcu commodo.";}s:7:"storage";a:6:{s:3:"key";s:11:"home/_icons";s:11:"storage_key";s:14:"01.home/_icons";s:8:"template";s:5:"icons";s:17:"storage_timestamp";i:1619815198;s:8:"markdown";a:1:{s:0:"";a:1:{s:5:"icons";i:1619815198;}}s:8:"checksum";s:32:"747a1fcbcc80d078e5f6b6f523a668fc";}}