1622498617
O:39:"Grav\Common\Flex\Types\Pages\PageObject":4:{s:4:"type";s:5:"pages";s:3:"key";s:11:"home/_icons";s:8:"elements";a:4:{s:4:"root";b:0;s:6:"header";a:3:{s:5:"title";s:50:"If you want to distribute it, we can facilitate it";s:7:"buttons";a:1:{i:0;a:2:{s:4:"text";s:13:"Find Out More";s:3:"url";s:1:"#";}}s:5:"icons";a:6:{i:0;a:2:{s:5:"label";s:9:"Feature 1";s:4:"icon";s:12:"file-audio-o";}i:1;a:2:{s:5:"label";s:9:"Feature 2";s:4:"icon";s:5:"music";}i:2;a:2:{s:5:"label";s:9:"Feature 3";s:4:"icon";s:7:"spotify";}i:3;a:2:{s:5:"label";s:9:"Feature 4";s:4:"icon";s:3:"rss";}i:4;a:2:{s:5:"label";s:9:"Feature 5";s:4:"icon";s:5:"apple";}i:5;a:2:{s:5:"label";s:9:"Feature 6";s:4:"icon";s:8:"bandcamp";}}}s:11:"frontmatter";s:456:"title: 'If you want to distribute it, we can facilitate it'
buttons:
    -
        text: 'Find Out More'
        url: '#'
icons:
    -
        label: 'Feature 1'
        icon: file-audio-o
    -
        label: 'Feature 2'
        icon: music
    -
        label: 'Feature 3'
        icon: spotify
    -
        label: 'Feature 4'
        icon: rss
    -
        label: 'Feature 5'
        icon: apple
    -
        label: 'Feature 6'
        icon: bandcamp";s:8:"markdown";s:297:"Even if you're not looking at a physical release, Lazy Bear Records has you covered. After our first release; <strong>The Wretched</strong>, We're able to produce and distribute on all major platforms, including streaming services such as Spotify and bandcamp, physically on CD, Cassette, and USB.";}s:7:"storage";a:6:{s:3:"key";s:11:"home/_icons";s:11:"storage_key";s:14:"01.home/_icons";s:8:"template";s:5:"icons";s:17:"storage_timestamp";i:1622498017;s:8:"markdown";a:1:{s:0:"";a:1:{s:5:"icons";i:1622498017;}}s:8:"checksum";s:32:"237a80c9c4ed9b15ff2b60cef4e30121";}}