1622496718
O:39:"Grav\Common\Flex\Types\Pages\PageObject":4:{s:4:"type";s:5:"pages";s:3:"key";s:7:"contact";s:8:"elements";a:4:{s:4:"root";b:0;s:6:"header";a:7:{s:5:"title";s:12:"Get In Touch";s:11:"description";s:58:"Use the form below to give /dev/null a piece of your mind.";s:10:"body_class";s:7:"contact";s:4:"icon";s:8:"envelope";s:4:"menu";s:7:"Contact";s:4:"form";a:4:{s:4:"name";s:12:"my-nice-form";s:6:"fields";a:3:{i:0;a:8:{s:4:"name";s:4:"name";s:5:"label";s:4:"Name";s:14:"framework_size";s:4:"half";s:11:"placeholder";s:4:"Name";s:9:"autofocus";s:2:"on";s:12:"autocomplete";s:2:"on";s:4:"type";s:4:"text";s:8:"validate";a:1:{s:8:"required";b:1;}}i:1;a:6:{s:4:"name";s:5:"email";s:14:"framework_size";s:4:"half";s:5:"label";s:5:"Email";s:11:"placeholder";s:16:"name@example.com";s:4:"type";s:4:"text";s:8:"validate";a:2:{s:4:"rule";s:5:"email";s:8:"required";b:1;}}i:2;a:7:{s:4:"name";s:7:"message";s:14:"framework_size";s:4:"full";s:5:"label";s:7:"Message";s:4:"size";s:4:"long";s:11:"placeholder";s:17:"Your message here";s:4:"type";s:8:"textarea";s:8:"validate";a:1:{s:8:"required";b:1;}}}s:7:"buttons";a:1:{i:0;a:2:{s:4:"type";s:6:"submit";s:5:"value";s:6:"Submit";}}s:7:"process";a:4:{i:0;a:1:{s:5:"email";a:4:{s:4:"from";s:31:"{{ config.plugins.email.from }}";s:2:"to";a:2:{i:0;s:31:"{{ config.plugins.email.from }}";i:1;s:22:"{{ form.value.email }}";}s:7:"subject";s:34:"[Feedback] {{ form.value.name|e }}";s:4:"body";s:36:"{% include 'forms/data.html.twig' %}";}}i:1;a:1:{s:4:"save";a:4:{s:10:"fileprefix";s:9:"feedback-";s:10:"dateformat";s:9:"Ymd-His-u";s:9:"extension";s:3:"txt";s:4:"body";s:35:"{% include 'forms/data.txt.twig' %}";}}i:2;a:1:{s:7:"message";s:28:"Thank you for your feedback!";}i:3;a:1:{s:7:"display";s:8:"thankyou";}}}s:7:"buttons";a:2:{i:0;a:3:{s:4:"text";s:13:"Take My Money";s:3:"url";s:1:"#";s:5:"class";s:7:"special";}i:1;a:2:{s:4:"text";s:7:"LOL Wut";s:3:"url";s:1:"#";}}}s:11:"frontmatter";s:1547:"title: Get In Touch
description: Use the form below to give /dev/null a piece of your mind.
body_class: contact
icon: envelope
menu: Contact
form:
    name: my-nice-form
    fields:
        - name: name
          label: Name
          framework_size: half
          placeholder: Name
          autofocus: on
          autocomplete: on
          type: text
          validate:
            required: true

        - name: email
          framework_size: half
          label: Email
          placeholder: name@example.com
          type: text
          validate:
            rule: email
            required: true

        - name: message
          framework_size: full
          label: Message
          size: long
          placeholder: Your message here
          type: textarea
          validate:
            required: true

    buttons:
        - type: submit
          value: Submit

    process:
        - email:
            from: "{{ config.plugins.email.from }}"
            to:
              - "{{ config.plugins.email.from }}"
              - "{{ form.value.email }}"
            subject: "[Feedback] {{ form.value.name|e }}"
            body: "{% include 'forms/data.html.twig' %}"
        - save:
            fileprefix: feedback-
            dateformat: Ymd-His-u
            extension: txt
            body: "{% include 'forms/data.txt.twig' %}"
        - message: Thank you for your feedback!
        - display: thankyou
buttons:
    - text: Take My Money
      url: '#'
      class: special
    - text: LOL Wut
      url: '#'      ";s:8:"markdown";s:0:"";}s:7:"storage";a:7:{s:3:"key";s:7:"contact";s:11:"storage_key";s:10:"05.contact";s:8:"template";s:4:"form";s:17:"storage_timestamp";i:1619815198;s:8:"markdown";a:1:{s:0:"";a:1:{s:4:"form";i:1619815198;}}s:8:"children";a:1:{s:8:"thankyou";b:0;}s:8:"checksum";s:32:"899126775623b43387af81489a1ab889";}}