1622495581
O:39:"Grav\Common\Flex\Types\Pages\PageObject":4:{s:4:"type";s:5:"pages";s:3:"key";s:12:"home/_header";s:8:"elements";a:4:{s:4:"root";b:0;s:6:"header";a:2:{s:5:"title";s:112:"As this is my <strong>twentieth</strong> freebie for HTML5 UP<br /> I decided to give it a really creative name.";s:4:"icon";s:11:"bar-chart-o";}s:11:"frontmatter";s:139:"title: "As this is my <strong>twentieth</strong> freebie for HTML5 UP<br /> I decided to give it a really creative name."
icon: bar-chart-o";s:8:"markdown";s:345:"<p>Turns out <strong>Twenty</strong> was the best I could come up with. Anyway, lame name aside,
<br />
it's minimally designed, fully responsive, built on HTML5/CSS3/<strong>skel</strong>,
and, like all my stuff,
<br />
released for free under the <a href="http://html5up.net/license">Creative Commons Attribution 3.0</a> license. Have fun!</p>";}s:7:"storage";a:6:{s:3:"key";s:12:"home/_header";s:11:"storage_key";s:15:"01.home/_header";s:8:"template";s:6:"header";s:17:"storage_timestamp";i:1619815198;s:8:"markdown";a:1:{s:0:"";a:1:{s:6:"header";i:1619815198;}}s:8:"checksum";s:32:"a787f780b3a1cc29e29f48ddbfd7f421";}}