1622494547
O:39:"Grav\Common\Flex\Types\Pages\PageObject":4:{s:4:"type";s:5:"pages";s:3:"key";s:4:"home";s:8:"elements";a:4:{s:4:"root";b:0;s:6:"header";a:6:{s:5:"title";s:6:"Twenty";s:4:"menu";s:4:"Home";s:11:"onpage_menu";b:1;s:10:"body_class";s:5:"index";s:12:"header_class";s:3:"alt";s:7:"content";a:2:{s:5:"items";s:13:"@self.modular";s:5:"order";a:3:{s:2:"by";s:7:"default";s:3:"dir";s:3:"asc";s:6:"custom";a:4:{i:0;s:7:"_banner";i:1;s:7:"_header";i:2;s:6:"_icons";i:3;s:9:"_features";}}}}s:11:"frontmatter";s:265:"title: Twenty
menu: Home
onpage_menu: true
body_class: index
header_class: alt
content:
    items: @self.modular
    order:
        by: default
        dir: asc
        custom:
            - _banner
            - _header
            - _icons
            - _features";s:8:"markdown";s:0:"";}s:7:"storage";a:7:{s:3:"key";s:4:"home";s:11:"storage_key";s:7:"01.home";s:8:"template";s:7:"modular";s:17:"storage_timestamp";i:1619815198;s:8:"markdown";a:1:{s:0:"";a:1:{s:7:"modular";i:1619815198;}}s:8:"children";a:6:{s:7:"_banner";b:0;s:7:"_bottom";b:0;s:9:"_features";b:0;s:7:"_header";b:0;s:6:"_icons";b:0;s:10:"_portfolio";b:0;}s:8:"checksum";s:32:"935488dfa1c563f751a32b4744f04bb8";}}