1622496231
O:39:"Grav\Common\Flex\Types\Pages\PageObject":4:{s:4:"type";s:5:"pages";s:3:"key";s:12:"home/_bottom";s:8:"elements";a:4:{s:4:"root";b:0;s:6:"header";a:3:{s:5:"title";s:39:"Ready to do <strong>something</strong>?";s:7:"buttons";a:2:{i:0;a:3:{s:4:"text";s:13:"Take My Money";s:3:"url";s:1:"#";s:5:"class";s:7:"special";}i:1;a:2:{s:4:"text";s:7:"LOL Wut";s:3:"url";s:1:"#";}}s:4:"menu";s:13:"after_article";}s:11:"frontmatter";s:180:"title: Ready to do <strong>something</strong>?
buttons:
    - text: Take My Money
      url: '#'
      class: special
    - text: LOL Wut
      url: '#'  
menu: after_article      ";s:8:"markdown";s:66:"Proin a ullamcorper elit, et sagittis turpis integer ut fermentum.";}s:7:"storage";a:6:{s:3:"key";s:12:"home/_bottom";s:11:"storage_key";s:15:"01.home/_bottom";s:8:"template";s:6:"bottom";s:17:"storage_timestamp";i:1619815198;s:8:"markdown";a:1:{s:0:"";a:1:{s:6:"bottom";i:1619815198;}}s:8:"checksum";s:32:"1c13635b409ababefe88dc89788ec61d";}}