1622496809
O:39:"Grav\Common\Flex\Types\Pages\PageObject":4:{s:4:"type";s:5:"pages";s:3:"key";s:9:"nosidebar";s:8:"elements";a:4:{s:4:"root";b:0;s:6:"header";a:8:{s:5:"title";s:10:"No Sidebar";s:8:"subtitle";s:47:"And finally there's <strong>No Sidebar</strong>";s:11:"description";s:58:"Where that in the center faces the nameless horrors alone.";s:10:"body_class";s:10:"no-sidebar";s:12:"header_class";s:17:"skel-layers-fixed";s:4:"icon";s:6:"mobile";s:11:"onpage_menu";b:1;s:7:"content";a:2:{s:5:"items";s:13:"@self.modular";s:5:"order";a:3:{s:2:"by";s:7:"default";s:3:"dir";s:3:"asc";s:6:"custom";a:1:{i:0;s:8:"_content";}}}}s:11:"frontmatter";s:358:"title: No Sidebar
subtitle: "And finally there's <strong>No Sidebar</strong>"
description: "Where that in the center faces the nameless horrors alone."
body_class: no-sidebar
header_class: skel-layers-fixed
icon: mobile
onpage_menu: true
content:
    items: @self.modular
    order:
        by: default
        dir: asc
        custom:
            - _content";s:8:"markdown";s:0:"";}s:7:"storage";a:7:{s:3:"key";s:9:"nosidebar";s:11:"storage_key";s:12:"04.nosidebar";s:8:"template";s:7:"modular";s:17:"storage_timestamp";i:1619815198;s:8:"markdown";a:1:{s:0:"";a:1:{s:7:"modular";i:1619815198;}}s:8:"children";a:2:{s:8:"_content";b:0;s:9:"_features";b:0;}s:8:"checksum";s:32:"c179909fe5aee778bee242e5d8d1d812";}}