1622552886
O:39:"Grav\Common\Flex\Types\Pages\PageObject":4:{s:4:"type";s:5:"pages";s:3:"key";s:22:"rightsidebar/_features";s:8:"elements";a:4:{s:4:"root";b:0;s:6:"header";a:1:{s:8:"features";a:3:{i:0;a:4:{s:4:"icon";N;s:5:"title";s:17:"This is Something";s:4:"text";s:171:"Sed tristique purus vitae volutpat ultrices. Aliquam eu elit eget arcu commodo suscipit dolor nec nibh. Proin a ullamcorper elit, et sagittis turpis. Integer ut fermentum.";s:7:"buttons";a:1:{i:0;a:2:{s:4:"text";s:10:"Learn More";s:3:"url";s:5:"#main";}}}i:1;a:4:{s:4:"icon";N;s:5:"title";s:14:"Also Something";s:4:"text";s:171:"Sed tristique purus vitae volutpat ultrices. Aliquam eu elit eget arcu commodo suscipit dolor nec nibh. Proin a ullamcorper elit, et sagittis turpis. Integer ut fermentum.";s:7:"buttons";a:1:{i:0;a:2:{s:4:"text";s:10:"Learn More";s:3:"url";s:5:"#main";}}}i:2;a:4:{s:4:"icon";N;s:5:"title";s:18:"Probably Something";s:4:"text";s:171:"Sed tristique purus vitae volutpat ultrices. Aliquam eu elit eget arcu commodo suscipit dolor nec nibh. Proin a ullamcorper elit, et sagittis turpis. Integer ut fermentum.";s:7:"buttons";a:1:{i:0;a:2:{s:4:"text";s:10:"Learn More";s:3:"url";s:5:"#main";}}}}}s:11:"frontmatter";s:887:"features:
    - icon:
      title: This is Something
      text: Sed tristique purus vitae volutpat ultrices. Aliquam eu elit eget arcu commodo suscipit dolor nec nibh. Proin a ullamcorper elit, et sagittis turpis. Integer ut fermentum.
      buttons:
        - text: Learn More
          url: '#main'
    - icon:
      title: Also Something
      text: Sed tristique purus vitae volutpat ultrices. Aliquam eu elit eget arcu commodo suscipit dolor nec nibh. Proin a ullamcorper elit, et sagittis turpis. Integer ut fermentum.
      buttons:
        - text: Learn More
          url: '#main'
    - icon:
      title: Probably Something
      text: Sed tristique purus vitae volutpat ultrices. Aliquam eu elit eget arcu commodo suscipit dolor nec nibh. Proin a ullamcorper elit, et sagittis turpis. Integer ut fermentum.
      buttons:
        - text: Learn More
          url: '#main'    ";s:8:"markdown";s:0:"";}s:7:"storage";a:6:{s:3:"key";s:22:"rightsidebar/_features";s:11:"storage_key";s:25:"03.rightsidebar/_features";s:8:"template";s:8:"features";s:17:"storage_timestamp";i:1619815198;s:8:"markdown";a:1:{s:0:"";a:1:{s:8:"features";i:1619815198;}}s:8:"checksum";s:32:"95fd90881fb6069e35dafd472b8fe045";}}