1622495948
O:39:"Grav\Common\Flex\Types\Pages\PageObject":4:{s:4:"type";s:5:"pages";s:3:"key";s:12:"home/_banner";s:8:"elements";a:4:{s:4:"root";b:0;s:6:"header";a:3:{s:5:"title";s:17:"Lazy Bear Records";s:7:"buttons";a:1:{i:0;a:2:{s:4:"text";s:12:"Tell me more";s:3:"url";s:5:"#main";}}s:4:"menu";s:14:"before_article";}s:11:"frontmatter";s:112:"title: 'Lazy Bear Records'
buttons:
    -
        text: 'Tell me more'
        url: '#main'
menu: before_article";s:8:"markdown";s:284:"<p>An independent audio <strong>Micro Label</strong>,
    <br />
    From <strong>Ambient</strong> and <strong>Audiobooks</strong>,
    <br />
    To <strong>Experimental</strong> and <strong>Rock</strong>.
    <br />
    Based in <strong>Edinburgh</strong>, Scotland.
    <br />
</p>";}s:7:"storage";a:6:{s:3:"key";s:12:"home/_banner";s:11:"storage_key";s:15:"01.home/_banner";s:8:"template";s:6:"banner";s:17:"storage_timestamp";i:1622495018;s:8:"markdown";a:1:{s:0:"";a:1:{s:6:"banner";i:1622495018;}}s:8:"checksum";s:32:"6f10e59bc6c89e9a4633a41f6b6fd819";}}