1622494926
O:39:"Grav\Common\Flex\Types\Pages\PageObject":4:{s:4:"type";s:5:"pages";s:3:"key";s:21:"rightsidebar/_content";s:8:"elements";a:4:{s:4:"root";b:0;s:6:"header";a:4:{s:5:"title";s:21:"Dolore Amet Consequat";s:14:"featured_image";s:9:"pic03.jpg";s:16:"sidebar_position";s:5:"right";s:15:"sidebar_modules";a:2:{i:0;a:4:{s:5:"title";s:13:"Magna Feugiat";s:7:"content";s:229:"Sed tristique purus vitae volutpat commodo suscipit amet sed nibh. Proin a ullamcorper sed blandit. Sed tristique purus vitae volutpat commodo suscipit ullamcorper commodo suscipit amet sed nibh. Proin a ullamcorper sed blandit..";s:14:"featured_image";N;s:7:"buttons";a:1:{i:0;a:2:{s:4:"text";s:10:"Learn More";s:3:"url";s:1:"#";}}}i:1;a:4:{s:5:"title";s:17:"Amet Lorem Tempus";s:7:"content";s:195:"Sed tristique purus vitae volutpat commodo suscipit amet sed nibh. Proin a ullamcorper sed blandit. Sed tristique purus vitae volutpat commodo suscipit ullamcorper sed blandit lorem ipsum dolore.";s:14:"featured_image";s:9:"pic04.jpg";s:7:"buttons";a:1:{i:0;a:2:{s:4:"text";s:10:"Learn More";s:3:"url";s:1:"#";}}}}}s:11:"frontmatter";s:795:"title: Dolore Amet Consequat
featured_image: pic03.jpg
sidebar_position: right
sidebar_modules:
    - title: Magna Feugiat
      content: Sed tristique purus vitae volutpat commodo suscipit amet sed nibh. Proin a ullamcorper sed blandit. Sed tristique purus vitae volutpat commodo suscipit ullamcorper commodo suscipit amet sed nibh. Proin a ullamcorper sed blandit..
      featured_image: 
      buttons:
        - text: Learn More
          url: '#' 
    - title: Amet Lorem Tempus
      content: Sed tristique purus vitae volutpat commodo suscipit amet sed nibh. Proin a ullamcorper sed blandit. Sed tristique purus vitae volutpat commodo suscipit ullamcorper sed blandit lorem ipsum dolore.
      featured_image: pic04.jpg
      buttons:
        - text: Learn More
          url: '#'        ";s:8:"markdown";s:1242:"Aliquam massa urna, imperdiet sit amet mi non, bibendum euismod est. Curabitur mi justo, tincidunt vel eros ullamcorper, porta cursus justo. Cras vel neque eros. Vestibulum diam quam, mollis at consectetur non, malesuada quis augue. Morbi tincidunt pretium interdum. Morbi mattis elementum orci, nec dictum massa. Morbi eu faucibus massa. Aliquam massa urna, imperdiet sit amet mi non, bibendum euismod est. Curabitur mi justo, tincidunt vel eros ullamcorper, porta cursus justo. Cras vel neque eros. Vestibulum diam.

Vestibulum diam quam, mollis at consectetur non, malesuada quis augue. Morbi tincidunt pretium interdum. Morbi mattis elementum orci, nec dictum porta cursus justo. Quisque ultricies lorem in ligula condimentum, et egestas turpis sagittis. Cras ac nunc urna. Nullam eget lobortis purus. Phasellus vitae tortor non est placerat tristique. Sed id sem et massa ornare pellentesque. Maecenas pharetra porta accumsan.

In vestibulum massa quis arcu lobortis tempus. Nam pretium arcu in odio vulputate luctus. Suspendisse euismod lorem eget lacinia fringilla. Sed sed felis justo. Nunc sodales elit in laoreet aliquam. Nam gravida, nisl sit amet iaculis porttitor, risus nisi rutrum metus, non hendrerit ipsum arcu tristique est.";}s:7:"storage";a:6:{s:3:"key";s:21:"rightsidebar/_content";s:11:"storage_key";s:24:"03.rightsidebar/_content";s:8:"template";s:7:"sidebar";s:17:"storage_timestamp";i:1619815198;s:8:"markdown";a:1:{s:0:"";a:1:{s:7:"sidebar";i:1619815198;}}s:8:"checksum";s:32:"23748de4d538068a68e13a63fb659458";}}