1622498052
O:39:"Grav\Common\Flex\Types\Pages\PageObject":4:{s:4:"type";s:5:"pages";s:3:"key";s:15:"home/_portfolio";s:8:"elements";a:4:{s:4:"root";b:0;s:6:"header";a:3:{s:5:"title";s:44:"Take a look at our <strong>Projects</strong>";s:9:"portfolio";a:4:{i:0;a:4:{s:5:"image";s:9:"pic01.jpg";s:10:"image_link";s:38:"https://lazybearrecordsuk.bandcamp.com";s:5:"title";s:12:"The Wretched";s:4:"text";s:183:"*Audiodrama*: When your spaceship crashes, and your crewmates fall foul of the local fauna how do you survive? An hour-long science fiction narrative told through evolving audio logs.";}i:1;a:4:{s:5:"image";s:9:"pic02.jpg";s:10:"image_link";s:1:"#";s:5:"title";s:19:"An Airport Terminal";s:4:"text";s:195:"Sed tristique purus vitae volutpat commodo suscipit amet sed nibh. Proin a ullamcorper sed blandit. Sed tristique purus vitae volutpat commodo suscipit ullamcorper sed blandit lorem ipsum dolore.";}i:2;a:4:{s:5:"image";s:9:"pic03.jpg";s:10:"image_link";s:1:"#";s:5:"title";s:17:"Hyperspace Travel";s:4:"text";s:195:"Sed tristique purus vitae volutpat commodo suscipit amet sed nibh. Proin a ullamcorper sed blandit. Sed tristique purus vitae volutpat commodo suscipit ullamcorper sed blandit lorem ipsum dolore.";}i:3;a:4:{s:5:"image";s:9:"pic04.jpg";s:10:"image_link";s:1:"#";s:5:"title";s:17:"And Another Train";s:4:"text";s:195:"Sed tristique purus vitae volutpat commodo suscipit amet sed nibh. Proin a ullamcorper sed blandit. Sed tristique purus vitae volutpat commodo suscipit ullamcorper sed blandit lorem ipsum dolore.";}}s:7:"buttons";a:1:{i:0;a:2:{s:4:"text";s:8:"See More";s:3:"url";s:39:"https://lazybearrecordsuk.bandcamp.com/";}}}s:11:"frontmatter";s:1389:"title: 'Take a look at our <strong>Projects</strong>'
portfolio:
    -
        image: pic01.jpg
        image_link: 'https://lazybearrecordsuk.bandcamp.com'
        title: 'The Wretched'
        text: '*Audiodrama*: When your spaceship crashes, and your crewmates fall foul of the local fauna how do you survive? An hour-long science fiction narrative told through evolving audio logs.'
    -
        image: pic02.jpg
        image_link: '#'
        title: 'An Airport Terminal'
        text: 'Sed tristique purus vitae volutpat commodo suscipit amet sed nibh. Proin a ullamcorper sed blandit. Sed tristique purus vitae volutpat commodo suscipit ullamcorper sed blandit lorem ipsum dolore.'
    -
        image: pic03.jpg
        image_link: '#'
        title: 'Hyperspace Travel'
        text: 'Sed tristique purus vitae volutpat commodo suscipit amet sed nibh. Proin a ullamcorper sed blandit. Sed tristique purus vitae volutpat commodo suscipit ullamcorper sed blandit lorem ipsum dolore.'
    -
        image: pic04.jpg
        image_link: '#'
        title: 'And Another Train'
        text: 'Sed tristique purus vitae volutpat commodo suscipit amet sed nibh. Proin a ullamcorper sed blandit. Sed tristique purus vitae volutpat commodo suscipit ullamcorper sed blandit lorem ipsum dolore.'
buttons:
    -
        text: 'See More'
        url: 'https://lazybearrecordsuk.bandcamp.com/'";s:8:"markdown";s:0:"";}s:7:"storage";a:6:{s:3:"key";s:15:"home/_portfolio";s:11:"storage_key";s:18:"01.home/_portfolio";s:8:"template";s:9:"portfolio";s:17:"storage_timestamp";i:1622496209;s:8:"markdown";a:1:{s:0:"";a:1:{s:9:"portfolio";i:1622496209;}}s:8:"checksum";s:32:"026089a9110f36023aedd387720960db";}}