1622498476
O:39:"Grav\Common\Flex\Types\Pages\PageObject":4:{s:4:"type";s:5:"pages";s:3:"key";s:12:"home/_header";s:8:"elements";a:4:{s:4:"root";b:0;s:6:"header";a:2:{s:5:"title";s:70:"A label <strong>by</strong> introverts <strong>for</strong> introverts";s:4:"icon";s:7:"heart-o";}s:11:"frontmatter";s:93:"title: 'A label <strong>by</strong> introverts <strong>for</strong> introverts'
icon: heart-o";s:8:"markdown";s:889:"<p>
Specialising in <strong>limited-run</strong> physical releases, Lazy Bear Records puts the <strong>artist first</strong>. Coming from academic backgrounds, Lazy Bear Records knows how great it feels to make that special EP, LP, or single, but not have enough capital to make it a tangible reality. Between helping to fund physical releases, designing cover art, and promoting our artists, Lazy Bear Records helps to maximise exposure on the <strong>experimental</strong> festival scene; having successfully placed artists in <a href="https://sound-scotland.co.uk"> <strong>Sound Festival</strong></a> (Aberdeen), <a href="http://sonada.org/sonada_main.html"> <strong>SonADA</strong></a> (Aberdeen), <a href="https://www.soundslikethis.co.uk"><strong>Sounds Like THIS</strong></a> (Leeds), and <a href="http://www.dialogues-festival.org"><strong>Dialogues</strong></a> (Edinburgh).
</p>";}s:7:"storage";a:6:{s:3:"key";s:12:"home/_header";s:11:"storage_key";s:15:"01.home/_header";s:8:"template";s:6:"header";s:17:"storage_timestamp";i:1622497452;s:8:"markdown";a:1:{s:0:"";a:1:{s:6:"header";i:1622497452;}}s:8:"checksum";s:32:"c6d40e5765cd5516a7689c4361f37c33";}}